What Factors Determine a Students Success? – MiniProject
…
Rows: 1000 Columns: 8
── Column specification ────────────────────────────────────────────────────────
Delimiter: ","
chr (5): gender, race/ethnicity, parental level of education, lunch, test pr...
dbl (3): math score, reading score, writing score

ℹ Use `spec()` to retrieve the full column specification for this data.
ℹ Specify the column types or set `show_col_types = FALSE` to quiet this message.

readingMean <- mean(students$'reading score', na.rm = TRUE)
writingMean <- mean(students$'writing score', na.rm = TRUE)
mathMean <- mean(students$'math score', na.rm = TRUE)

# A tibble: 1,000 × 8
   gender `race/ethnicity` parental level of educ…¹ lunch test preparation cou…²
   <chr>  <chr>            <chr>                    <chr> <chr>                 
 1 female group B          bachelor's degree        stan… none                  
 2 female group C          some college             stan… completed             
 3 female group B          master's degree          stan… none                  
 4 male   group A          associate's degree       free… none                  
 5 male   group C          some college             stan… none                  
 6 female group B          associate's degree       stan… none                  
 7 female group B          some college             stan… completed             
 8 male   group B          some college             free… none                  
 9 male   group D          high school              free… completed             
10 female group B          high school              free… none                  
# ℹ 990 more rows
# ℹ abbreviated names: ¹​`parental level of education`,
#   ²​`test preparation course`
# ℹ 3 more variables: `math score` <dbl>, `reading score` <dbl>,
#   `writing score` <dbl>
…
